San Jose Jazz Festival
2018-08-10

    520 I Could have Danced
     18 Moten Swing
    305 It's About Swing
    532 I've Got You Under My Skin (Stan)
    522 Cherokee
    330 Love For Sale
    498 Summer Samba
    530 I Believe In You (Stan)
    304 Lover's Leap
    391 A Train
     42  Walkin' My Baby Back Home (vocal) 

    430 920 Special
     41 Fly Me to the Moon (Stan)
    513 God Bless the Child
    525 Shorty George
    394 Springtime
    434 'T Ain't Whatcha Do (vocal)
    381 Begin the Beguine
    337 Rent Party
    352 It's Oh, So Nice
    373 The Best Is Yet To Come (vocal)
    368 Autumn Leaves (Ted Heath)
    370 Bare Necessities

